# compile verilog/system verilog design source files
verilog xil_defaultlib  \
"../../../../lab11.srcs/sources_1/imports/XEM7310-A75/okCoreHarness.v" \
"../../../../lab11.srcs/sources_1/imports/XEM7310-A75/okLibrary.v" \
"../../../../lab11.srcs/sources_1/new/motor_driver.v" \

# compile glbl module
verilog xil_defaultlib "glbl.v"

# Do not sort compile order
nosort
