Copyright 1986-2018 Xilinx, Inc. All Rights Reserved.
---------------------------------------------------------------------------------------------------------------------------------------------------------------------
| Tool Version : Vivado v.2018.3 (win64) Build 2405991 Thu Dec  6 23:38:27 MST 2018
| Date         : Tue Feb  5 09:59:07 2019
| Host         : DESKTOP-TN50694 running 64-bit major release  (build 9200)
| Command      : report_bus_skew -warn_on_violation -file lab3_example_bus_skew_routed.rpt -pb lab3_example_bus_skew_routed.pb -rpx lab3_example_bus_skew_routed.rpx
| Design       : lab3_example
| Device       : 7a75t-fgg484
| Speed File   : -1  PRODUCTION 1.23 2018-06-13
---------------------------------------------------------------------------------------------------------------------------------------------------------------------

Bus Skew Report

No bus skew constraints

