xpm_cdc.sv,systemverilog,xil_defaultlib,../../../../../../../../../Xilinx/Vivado/2018.3/data/ip/xpm/xpm_cdc/hdl/xpm_cdc.sv,incdir="../../../../../lab5/lab5.srcs/sources_1/ip/ila_0/hdl/verilog"
xpm_memory.sv,systemverilog,xil_defaultlib,../../../../../../../../../Xilinx/Vivado/2018.3/data/ip/xpm/xpm_memory/hdl/xpm_memory.sv,incdir="../../../../../lab5/lab5.srcs/sources_1/ip/ila_0/hdl/verilog"
xpm_VCOMP.vhd,vhdl,xpm,../../../../../../../../../Xilinx/Vivado/2018.3/data/ip/xpm/xpm_VCOMP.vhd,incdir="../../../../../lab5/lab5.srcs/sources_1/ip/ila_0/hdl/verilog"
ila_0.v,verilog,xil_defaultlib,../../../../../lab5/lab5.srcs/sources_1/ip/ila_0/sim/ila_0.v,incdir="../../../../../lab5/lab5.srcs/sources_1/ip/ila_0/hdl/verilog"
glbl.v,Verilog,xil_defaultlib,glbl.v
