Design Route Status
                                               :      # nets :
   ------------------------------------------- : ----------- :
   # of logical nets.......................... :        4499 :
       # of nets not needing routing.......... :        1715 :
           # of internally routed nets........ :        1710 :
           # of nets with no loads............ :           5 :
       # of routable nets..................... :        2784 :
           # of fully routed nets............. :        2784 :
       # of nets with routing errors.......... :           0 :
   ------------------------------------------- : ----------- :

